// Jest Snapshot v1, https://goo.gl/fbAQLP

exports[`Toasts storage renders correctly 1`] = `
<div
  className="toast-wrap"
>
  <div
    className="toast toast_type_error"
  >
    <button
      className="toast__close"
      onClick={[Function]}
    >
      <svg
        className=" b-svg__close"
        role="img"
      >
        <use
          xlinkHref="#svg-close"
        />
      </svg>
    </button>
    <div
      className="toast__text"
    >
      First toast
    </div>
  </div>
  <div
    className="toast toast_type_warning"
  >
    <button
      className="toast__close"
      onClick={[Function]}
    >
      <svg
        className=" b-svg__close"
        role="img"
      >
        <use
          xlinkHref="#svg-close"
        />
      </svg>
    </button>
    <div
      className="toast__text"
    >
      Second toast
    </div>
  </div>
</div>
`;
